ps1
…
filter(mpg, cyl == 8) #change fliter to filter. Instead of naming cyl or giving value of cyl, we want expressions to filter the data set by testing for equality. In order to do so, we use == instead of =. 

## # A tibble: 70 x 11
##    manufacturer              model displ  year   cyl      trans   drv
##           <chr>              <chr> <dbl> <int> <int>      <chr> <chr>
##  1         audi         a6 quattro   4.2  2008     8   auto(s6)     4
##  2    chevrolet c1500 suburban 2wd   5.3  2008     8   auto(l4)     r
##  3    chevrolet c1500 suburban 2wd   5.3  2008     8   auto(l4)     r
##  4    chevrolet c1500 suburban 2wd   5.3  2008     8   auto(l4)     r
##  5    chevrolet c1500 suburban 2wd   5.7  1999     8   auto(l4)     r
##  6    chevrolet c1500 suburban 2wd   6.0  2008     8   auto(l4)     r
##  7    chevrolet           corvette   5.7  1999     8 manual(m6)     r
##  8    chevrolet           corvette   5.7  1999     8   auto(l4)     r
##  9    chevrolet           corvette   6.2  2008     8 manual(m6)     r
## 10    chevrolet           corvette   6.2  2008     8   auto(s6)     r
## # ... with 60 more rows, and 4 more variables: cty <int>, hwy <int>,
## #   fl <chr>, class <chr>

filter(diamonds, carat > 3) #name of data set is diamonds instead of diamond

## # A tibble: 32 x 10
##    carat     cut color clarity depth table price     x     y     z
##    <dbl>   <ord> <ord>   <ord> <dbl> <dbl> <int> <dbl> <dbl> <dbl>
##  1  3.01 Premium     I      I1  62.7    58  8040  9.10  8.97  5.67
##  2  3.11    Fair     J      I1  65.9    57  9823  9.15  9.02  5.98
##  3  3.01 Premium     F      I1  62.2    56  9925  9.24  9.13  5.73
##  4  3.05 Premium     E      I1  60.9    58 10453  9.26  9.25  5.66
##  5  3.02    Fair     I      I1  65.2    56 10577  9.11  9.02  5.91
##  6  3.01    Fair     H      I1  56.1    62 10761  9.54  9.38  5.31
##  7  3.65    Fair     H      I1  67.1    53 11668  9.53  9.48  6.38
##  8  3.24 Premium     H      I1  62.1    58 12300  9.44  9.40  5.85
##  9  3.22   Ideal     I      I1  62.6    55 12545  9.49  9.42  5.92
## 10  3.50   Ideal     H      I1  62.8    57 12587  9.65  9.59  6.03
## # ... with 22 more rows
…
filter(flights, arr_delay >= 120)

## # A tibble: 10,200 x 19
##     year month   day dep_time sched_dep_time dep_delay arr_time
##    <int> <int> <int>    <int>          <int>     <dbl>    <int>
##  1  2013     1     1      811            630       101     1047
##  2  2013     1     1      848           1835       853     1001
##  3  2013     1     1      957            733       144     1056
##  4  2013     1     1     1114            900       134     1447
##  5  2013     1     1     1505           1310       115     1638
##  6  2013     1     1     1525           1340       105     1831
##  7  2013     1     1     1549           1445        64     1912
##  8  2013     1     1     1558           1359       119     1718
##  9  2013     1     1     1732           1630        62     2028
## 10  2013     1     1     1803           1620       103     2008
## # ... with 10,190 more rows, and 12 more variables: sched_arr_time <int>,
## #   arr_delay <dbl>, carrier <chr>, flight <int>, tailnum <chr>,
## #   origin <chr>, dest <chr>, air_time <dbl>, distance <dbl>, hour <dbl>,
## #   minute <dbl>, time_hour <dttm>

filter(flights, dest %in% c("IAH","HOU")) 

## # A tibble: 9,313 x 19
##     year month   day dep_time sched_dep_time dep_delay arr_time
##    <int> <int> <int>    <int>          <int>     <dbl>    <int>
##  1  2013     1     1      517            515         2      830
##  2  2013     1     1      533            529         4      850
##  3  2013     1     1      623            627        -4      933
##  4  2013     1     1      728            732        -4     1041
##  5  2013     1     1      739            739         0     1104
##  6  2013     1     1      908            908         0     1228
##  7  2013     1     1     1028           1026         2     1350
##  8  2013     1     1     1044           1045        -1     1352
##  9  2013     1     1     1114            900       134     1447
## 10  2013     1     1     1205           1200         5     1503
## # ... with 9,303 more rows, and 12 more variables: sched_arr_time <int>,
## #   arr_delay <dbl>, carrier <chr>, flight <int>, tailnum <chr>,
## #   origin <chr>, dest <chr>, air_time <dbl>, distance <dbl>, hour <dbl>,
## #   minute <dbl>, time_hour <dttm>

filter(flights, carrier %in% c("UA","AA","DL")) 

## # A tibble: 139,504 x 19
##     year month   day dep_time sched_dep_time dep_delay arr_time
##    <int> <int> <int>    <int>          <int>     <dbl>    <int>
##  1  2013     1     1      517            515         2      830
##  2  2013     1     1      533            529         4      850
##  3  2013     1     1      542            540         2      923
##  4  2013     1     1      554            600        -6      812
##  5  2013     1     1      554            558        -4      740
##  6  2013     1     1      558            600        -2      753
##  7  2013     1     1      558            600        -2      924
##  8  2013     1     1      558            600        -2      923
##  9  2013     1     1      559            600        -1      941
## 10  2013     1     1      559            600        -1      854
## # ... with 139,494 more rows, and 12 more variables: sched_arr_time <int>,
## #   arr_delay <dbl>, carrier <chr>, flight <int>, tailnum <chr>,
## #   origin <chr>, dest <chr>, air_time <dbl>, distance <dbl>, hour <dbl>,
## #   minute <dbl>, time_hour <dttm>

filter(flights, month %in% 7:9) 

## # A tibble: 86,326 x 19
##     year month   day dep_time sched_dep_time dep_delay arr_time
##    <int> <int> <int>    <int>          <int>     <dbl>    <int>
##  1  2013     7     1        1           2029       212      236
##  2  2013     7     1        2           2359         3      344
##  3  2013     7     1       29           2245       104      151
##  4  2013     7     1       43           2130       193      322
##  5  2013     7     1       44           2150       174      300
##  6  2013     7     1       46           2051       235      304
##  7  2013     7     1       48           2001       287      308
##  8  2013     7     1       58           2155       183      335
##  9  2013     7     1      100           2146       194      327
## 10  2013     7     1      100           2245       135      337
## # ... with 86,316 more rows, and 12 more variables: sched_arr_time <int>,
## #   arr_delay <dbl>, carrier <chr>, flight <int>, tailnum <chr>,
## #   origin <chr>, dest <chr>, air_time <dbl>, distance <dbl>, hour <dbl>,
## #   minute <dbl>, time_hour <dttm>

filter(flights, arr_delay > 120, dep_delay <= 0)

## # A tibble: 29 x 19
##     year month   day dep_time sched_dep_time dep_delay arr_time
##    <int> <int> <int>    <int>          <int>     <dbl>    <int>
##  1  2013     1    27     1419           1420        -1     1754
##  2  2013    10     7     1350           1350         0     1736
##  3  2013    10     7     1357           1359        -2     1858
##  4  2013    10    16      657            700        -3     1258
##  5  2013    11     1      658            700        -2     1329
##  6  2013     3    18     1844           1847        -3       39
##  7  2013     4    17     1635           1640        -5     2049
##  8  2013     4    18      558            600        -2     1149
##  9  2013     4    18      655            700        -5     1213
## 10  2013     5    22     1827           1830        -3     2217
## # ... with 19 more rows, and 12 more variables: sched_arr_time <int>,
## #   arr_delay <dbl>, carrier <chr>, flight <int>, tailnum <chr>,
## #   origin <chr>, dest <chr>, air_time <dbl>, distance <dbl>, hour <dbl>,
## #   minute <dbl>, time_hour <dttm>

filter(flights, dep_delay >= 60, dep_delay <= 0)

## # A tibble: 0 x 19
## # ... with 19 variables: year <int>, month <int>, day <int>,
## #   dep_time <int>, sched_dep_time <int>, dep_delay <dbl>, arr_time <int>,
## #   sched_arr_time <int>, arr_delay <dbl>, carrier <chr>, flight <int>,
## #   tailnum <chr>, origin <chr>, dest <chr>, air_time <dbl>,
## #   distance <dbl>, hour <dbl>, minute <dbl>, time_hour <dttm>

filter(flights, dep_delay >= 60, (dep_delay-arr_delay)> 60)

## # A tibble: 30 x 19
##     year month   day dep_time sched_dep_time dep_delay arr_time
##    <int> <int> <int>    <int>          <int>     <dbl>    <int>
##  1  2013     1     3     1950           1845        65     2228
##  2  2013    11    12     2216           2015       121       51
##  3  2013    12    27     1936           1830        66     2204
##  4  2013     2    23     1226            900       206     1746
##  5  2013     2    26     1000            900        60     1513
##  6  2013     2    27     2006           1830        96     2238
##  7  2013     3     1     1528            920       368     1738
##  8  2013     3     1     1738           1545       113     1958
##  9  2013     3     1     1827           1620       127     2106
## 10  2013     3     1     1929           1645       164     2141
## # ... with 20 more rows, and 12 more variables: sched_arr_time <int>,
## #   arr_delay <dbl>, carrier <chr>, flight <int>, tailnum <chr>,
## #   origin <chr>, dest <chr>, air_time <dbl>, distance <dbl>, hour <dbl>,
## #   minute <dbl>, time_hour <dttm>

filter(flights, dep_delay >= 60, (dep_delay-arr_delay)> 60)

## # A tibble: 30 x 19
##     year month   day dep_time sched_dep_time dep_delay arr_time
##    <int> <int> <int>    <int>          <int>     <dbl>    <int>
##  1  2013     1     3     1950           1845        65     2228
##  2  2013    11    12     2216           2015       121       51
##  3  2013    12    27     1936           1830        66     2204
##  4  2013     2    23     1226            900       206     1746
##  5  2013     2    26     1000            900        60     1513
##  6  2013     2    27     2006           1830        96     2238
##  7  2013     3     1     1528            920       368     1738
##  8  2013     3     1     1738           1545       113     1958
##  9  2013     3     1     1827           1620       127     2106
## 10  2013     3     1     1929           1645       164     2141
## # ... with 20 more rows, and 12 more variables: sched_arr_time <int>,
## #   arr_delay <dbl>, carrier <chr>, flight <int>, tailnum <chr>,
## #   origin <chr>, dest <chr>, air_time <dbl>, distance <dbl>, hour <dbl>,
## #   minute <dbl>, time_hour <dttm>
…
## [1] TRUE

FALSE & NA

## [1] FALSE

1.7 5.3.1

How could you use arrange() to sort all missing values to the start? (Hint: use is.na()).

flights %>%
arrange(!is.na(flights$tailnum), flights$tailnum)

## # A tibble: 336,776 x 19
##     year month   day dep_time sched_dep_time dep_delay arr_time
##    <int> <int> <int>    <int>          <int>     <dbl>    <int>
##  1  2013     1     2       NA           1545        NA       NA
##  2  2013     1     2       NA           1601        NA       NA
##  3  2013     1     3       NA            857        NA       NA
##  4  2013     1     3       NA            645        NA       NA
##  5  2013     1     4       NA            845        NA       NA
##  6  2013     1     4       NA           1830        NA       NA
##  7  2013     1     5       NA            840        NA       NA
##  8  2013     1     7       NA            820        NA       NA
##  9  2013     1     8       NA           1645        NA       NA
## 10  2013     1     9       NA            755        NA       NA
## # ... with 336,766 more rows, and 12 more variables: sched_arr_time <int>,
## #   arr_delay <dbl>, carrier <chr>, flight <int>, tailnum <chr>,
## #   origin <chr>, dest <chr>, air_time <dbl>, distance <dbl>, hour <dbl>,
## #   minute <dbl>, time_hour <dttm>

Sort flights to find the most delayed flights by arrival time.

arrange(flights, arr_time, desc(dep_delay))

## # A tibble: 336,776 x 19
##     year month   day dep_time sched_dep_time dep_delay arr_time
##    <int> <int> <int>    <int>          <int>     <dbl>    <int>
##  1  2013     3     8     2212           1539       393        1
##  2  2013     2    11     2159           1630       329        1
##  3  2013     8     1     2157           1734       263        1
##  4  2013    11    27     2243           1900       223        1
##  5  2013     9    11     2209           1830       219        1
##  6  2013     9    12     2109           1730       219        1
##  7  2013    12    17     2253           1920       213        1
##  8  2013     7    21     2203           1840       203        1
##  9  2013     6    10     2051           1729       202        1
## 10  2013     6    24     2018           1711       187        1
## # ... with 336,766 more rows, and 12 more variables: sched_arr_time <int>,
## #   arr_delay <dbl>, carrier <chr>, flight <int>, tailnum <chr>,
## #   origin <chr>, dest <chr>, air_time <dbl>, distance <dbl>, hour <dbl>,
## #   minute <dbl>, time_hour <dttm>

#or
arrange(arrange(flights, desc(dep_delay)),arr_time)

## # A tibble: 336,776 x 19
##     year month   day dep_time sched_dep_time dep_delay arr_time
##    <int> <int> <int>    <int>          <int>     <dbl>    <int>
##  1  2013     3     8     2212           1539       393        1
##  2  2013     2    11     2159           1630       329        1
##  3  2013     8     1     2157           1734       263        1
##  4  2013    11    27     2243           1900       223        1
##  5  2013     9    11     2209           1830       219        1
##  6  2013     9    12     2109           1730       219        1
##  7  2013    12    17     2253           1920       213        1
##  8  2013     7    21     2203           1840       203        1
##  9  2013     6    10     2051           1729       202        1
## 10  2013     6    24     2018           1711       187        1
## # ... with 336,766 more rows, and 12 more variables: sched_arr_time <int>,
## #   arr_delay <dbl>, carrier <chr>, flight <int>, tailnum <chr>,
## #   origin <chr>, dest <chr>, air_time <dbl>, distance <dbl>, hour <dbl>,
## #   minute <dbl>, time_hour <dttm>
…
1.8 5.4.1

Brainstorm as many ways as possible to select dep_time, dep_delay, arr_time, and arr_delay from flights.

names(flights)

##  [1] "year"           "month"          "day"            "dep_time"      
##  [5] "sched_dep_time" "dep_delay"      "arr_time"       "sched_arr_time"
##  [9] "arr_delay"      "carrier"        "flight"         "tailnum"       
## [13] "origin"         "dest"           "air_time"       "distance"      
## [17] "hour"           "minute"         "time_hour"

select(flights, dep_time, dep_delay, arr_time, arr_delay)

## # A tibble: 336,776 x 4
##    dep_time dep_delay arr_time arr_delay
##       <int>     <dbl>    <int>     <dbl>
##  1      517         2      830        11
##  2      533         4      850        20
##  3      542         2      923        33
##  4      544        -1     1004       -18
##  5      554        -6      812       -25
##  6      554        -4      740        12
##  7      555        -5      913        19
##  8      557        -3      709       -14
##  9      557        -3      838        -8
## 10      558        -2      753         8
## # ... with 336,766 more rows

select(flights, -(year:day),-sched_dep_time, -sched_arr_time, -(carrier:time_hour))

## # A tibble: 336,776 x 4
##    dep_time dep_delay arr_time arr_delay
##       <int>     <dbl>    <int>     <dbl>
##  1      517         2      830        11
##  2      533         4      850        20
##  3      542         2      923        33
##  4      544        -1     1004       -18
##  5      554        -6      812       -25
##  6      554        -4      740        12
##  7      555        -5      913        19
##  8      557        -3      709       -14
##  9      557        -3      838        -8
## 10      558        -2      753         8
## # ... with 336,766 more rows

select(flights, -(year:day),-contains("_dep_time"), -(carrier:time_hour))

## # A tibble: 336,776 x 5
##    dep_time dep_delay arr_time sched_arr_time arr_delay
##       <int>     <dbl>    <int>          <int>     <dbl>
##  1      517         2      830            819        11
##  2      533         4      850            830        20
##  3      542         2      923            850        33
##  4      544        -1     1004           1022       -18
##  5      554        -6      812            837       -25
##  6      554        -4      740            728        12
##  7      555        -5      913            854        19
##  8      557        -3      709            723       -14
##  9      557        -3      838            846        -8
## 10      558        -2      753            745         8
## # ... with 336,766 more rows

select(flights, contains("_"), -contains("sched"), -air_time, -time_hour)

## # A tibble: 336,776 x 4
##    dep_time dep_delay arr_time arr_delay
##       <int>     <dbl>    <int>     <dbl>
##  1      517         2      830        11
##  2      533         4      850        20
##  3      542         2      923        33
##  4      544        -1     1004       -18
##  5      554        -6      812       -25
##  6      554        -4      740        12
##  7      555        -5      913        19
##  8      557        -3      709       -14
##  9      557        -3      838        -8
## 10      558        -2      753         8
## # ... with 336,766 more rows
…
Because the imported data sets have all variables names in lower case, the resulting data set after selection would be empty.

1.9 5.5.2

Currently dep_time and sched_dep_time are convenient to look at, but hard to compute with because theyre not really continuous numbers. Convert them to a more convenient representation of number of minutes since midnight.

mutate(flights,
  dep_hour = dep_time %/% 100,
  dep_minute = dep_time %% 100,
  dep_time2 = hour  * 60 + minute,
  sched_dep_time2 = (sched_dep_time %/% 100) * 60 + (sched_dep_time %% 100)
)

## # A tibble: 336,776 x 23
##     year month   day dep_time sched_dep_time dep_delay arr_time
##    <int> <int> <int>    <int>          <int>     <dbl>    <int>
##  1  2013     1     1      517            515         2      830
##  2  2013     1     1      533            529         4      850
##  3  2013     1     1      542            540         2      923
##  4  2013     1     1      544            545        -1     1004
##  5  2013     1     1      554            600        -6      812
##  6  2013     1     1      554            558        -4      740
##  7  2013     1     1      555            600        -5      913
##  8  2013     1     1      557            600        -3      709
##  9  2013     1     1      557            600        -3      838
## 10  2013     1     1      558            600        -2      753
## # ... with 336,766 more rows, and 16 more variables: sched_arr_time <int>,
## #   arr_delay <dbl>, carrier <chr>, flight <int>, tailnum <chr>,
## #   origin <chr>, dest <chr>, air_time <dbl>, distance <dbl>, hour <dbl>,
## #   minute <dbl>, time_hour <dttm>, dep_hour <dbl>, dep_minute <dbl>,
## #   dep_time2 <dbl>, sched_dep_time2 <dbl>
…
